…
# adjust column names
colnames(meta) <- gsub(" " ,"_",colnames(meta)) %>% tolower()
meta <- meta %>% 
  dplyr::mutate(
    field_name = tolower( gsub(" " ,"_",field_name) ) 
  ) %>% 
  dplyr::slice(1:44)
meta #%>% neat()

## # A tibble: 44 x 3
##    field_name      description                     sample_data             
##    <chr>           <chr>                           <chr>                   
##  1 id_number       unique identifier for each inm~ 1                       
##  2 previous_id_nu~ ID number of the person's prev~ 0                       
##  3 inmate_name     name of the inmate              ABNEY                  ~
##  4 parole_eligibi~ "date at which the person is e~ <NA>                    
##  5 tentative_rele~ "date at which the person is e~ <NA>                    
##  6 earn_dschrg_dt  date at which the person is ex~ 30085                   
##  7 actual_dschrg_~ date the person actually disch~ 30034                   
##  8 good_time_law   good time law that governs the~ <NA>                    
##  9 docket_count    count of dockets in inmate's s~ 1                       
## 10 county          county of commitment            OUT OF STATE            
## # ... with 34 more rows
…
